…
#### `wos_jn_by_year`

Web of Science

``` r
readr::read_csv(here("data", "wos_jn_by_year.csv"))
```

    ## # A tibble: 85,873 × 5
    ##    issn_l    earliest_year pub_type     n oa_articles
    ##    <chr>             <dbl> <chr>    <dbl>       <dbl>
    ##  1 0001-0782          2019 core        94           0
    ##  2 0001-0782          2019 all        314           0
    ##  3 0001-0782          2020 core        89           0
    ##  4 0001-0782          2020 all        322           0
    ##  5 0001-0782          2021 core        93           0
    ##  6 0001-0782          2021 all        356           0
    ##  7 0001-0782          2022 core        93           2
    ##  8 0001-0782          2022 all        343           3
    ##  9 0001-0782          2023 core        84           9
    ## 10 0001-0782          2023 all        290           9
    ## # ℹ 85,863 more rows

#### `scp_jn_by_year`

Scopus

``` r
readr::read_csv(here("data", "scp_jn_by_year.csv"))
```

    ## # A tibble: 116,725 × 5
    ##    issn_l    earliest_year pub_type     n oa_articles
    ##    <chr>             <dbl> <chr>    <dbl>       <dbl>
    ##  1 0001-0782          2019 core       141           0
    ##  2 0001-0782          2019 all        258           0
    ##  3 0001-0782          2020 core       155           1
    ##  4 0001-0782          2020 all        296           2
    ##  5 0001-0782          2021 core       182           0
    ##  6 0001-0782          2021 all        344           1
    ##  7 0001-0782          2022 core       184           4
    ##  8 0001-0782          2022 all        319           4
    ##  9 0001-0782          2023 core       169          11
    ## 10 0001-0782          2023 all        271          11
    ## # ℹ 116,715 more rows
…
#### `wos_country_aff.csv`

Web of Science

``` r
readr::read_csv(here("data", "wos_country_aff.csv"))
```

    ## # A tibble: 2,081,308 × 12
    ##    issn_l    earliest_year countrycode pub_type     n oa_articles
    ##    <chr>             <dbl> <chr>       <chr>    <dbl>       <dbl>
    ##  1 0001-0782          2019 AUS         core         2           0
    ##  2 0001-0782          2019 AUS         all          2           0
    ##  3 0001-0782          2019 AUT         all          2           0
    ##  4 0001-0782          2019 CHE         core         1           0
    ##  5 0001-0782          2019 CHN         core         1           0
    ##  6 0001-0782          2019 DNK         core         2           0
    ##  7 0001-0782          2019 ESP         core         1           0
    ##  8 0001-0782          2019 ISR         all          5           0
    ##  9 0001-0782          2019 JPN         all          1           0
    ## 10 0001-0782          2019 LKA         all          1           0
    ## # ℹ 2,081,298 more rows
    ## # ℹ 6 more variables: first_author_articles <dbl>,
    ## #   oa_first_author_articles <dbl>, corresponding_author_articles <dbl>,
    ## #   oa_corresponding_author_articles <dbl>,
    ## #   first_corresponding_author_articles <dbl>,
    ## #   oa_first_corresponding_author_articles <dbl>

#### `scp_country_aff.csv`

Scopus

``` r
readr::read_csv(here("data", "scp_country_aff.csv"))
```

    ## # A tibble: 2,442,479 × 12
    ##    issn_l    earliest_year countrycode pub_type     n oa_articles
    ##    <chr>             <dbl> <chr>       <chr>    <dbl>       <dbl>
    ##  1 0001-0782          2019 <NA>        core         1           0
    ##  2 0001-0782          2019 <NA>        all          1           0
    ##  3 0001-0782          2019 AUS         core         2           0
    ##  4 0001-0782          2019 AUS         all          5           0
    ##  5 0001-0782          2019 AUT         core         1           0
    ##  6 0001-0782          2019 AUT         all          1           0
    ##  7 0001-0782          2019 BEL         core         1           0
    ##  8 0001-0782          2019 BEL         all          3           0
    ##  9 0001-0782          2019 CAN         all          2           0
    ## 10 0001-0782          2019 CHE         core         1           0
    ## # ℹ 2,442,469 more rows
    ## # ℹ 6 more variables: first_author_articles <dbl>,
    ## #   oa_first_author_articles <dbl>, corresponding_author_articles <dbl>,
    ## #   oa_corresponding_author_articles <dbl>,
    ## #   first_corresponding_author_articles <dbl>,
    ## #   oa_first_corresponding_author_articles <dbl>
…
#### `wos_jn_ta_by_year`

Web of Science

``` r
readr::read_csv(here("data", "wos_jn_ta_by_year.csv"))
```

    ## # A tibble: 74,431 × 11
    ##    issn_l    earliest_year pubtype ta_articles ta_oa_articles
    ##    <chr>             <dbl> <chr>         <dbl>          <dbl>
    ##  1 1433-7851          2023 all            2183           1121
    ##  2 1388-9842          2023 all             728            117
    ##  3 0047-2786          2023 all              24             21
    ##  4 0363-0234          2023 all              48             26
    ##  5 2365-709X          2023 all             388            226
    ##  6 0020-7594          2023 all            1324             31
    ##  7 1520-7552          2023 all              78             64
    ##  8 0004-8666          2023 all             162             57
    ##  9 1445-1433          2023 all             358            184
    ## 10 0013-9580          2023 all             805            161
    ## # ℹ 74,421 more rows
    ## # ℹ 6 more variables: ta_first_author_articles <dbl>,
    ## #   ta_oa_first_author_articles <dbl>, ta_corresponding_author_articles <dbl>,
    ## #   ta_oa_corresponding_author_articles <dbl>,
    ## #   ta_first_corresponding_author_articles <dbl>,
    ## #   ta_oa_first_corresponding_author_articles <dbl>

#### `scp_ta_jn_by_year`

Scopus

``` r
readr::read_csv(here("data", "scp_ta_jn_by_year.csv"))
```

    ## # A tibble: 86,774 × 11
    ##    issn_l    earliest_year pubtype ta_articles ta_oa_articles
    ##    <chr>             <dbl> <chr>         <dbl>          <dbl>
    ##  1 0001-0782          2023 core             24              1
    ##  2 0001-0782          2023 all              36              1
    ##  3 0001-1541          2023 core            118             53
    ##  4 0001-1541          2023 all             120             53
    ##  5 0001-2092          2023 core              3              0
    ##  6 0001-2092          2023 all               4              0
    ##  7 0001-2998          2023 core             50             18
    ##  8 0001-2998          2023 all              50             18
    ##  9 0001-3072          2023 core             19              9
    ## 10 0001-3072          2023 all              19              9
    ## # ℹ 86,764 more rows
    ## # ℹ 6 more variables: ta_first_author_articles <dbl>,
    ## #   ta_oa_first_author_articles <dbl>, ta_corresponding_author_articles <dbl>,
    ## #   ta_oa_corresponding_author_articles <dbl>,
    ## #   ta_first_corresponding_author_articles <dbl>,
    ## #   ta_oa_first_corresponding_author_articles <dbl>
…
#### `wos_jn_country_ta_by_year`

Web of Science

``` r
readr::read_csv(here("data", "wos_jn_country_ta_by_year.csv"))
```

    ## # A tibble: 538,584 × 12
    ##    issn_l    countrycode earliest_year pubtype ta_articles ta_oa_articles
    ##    <chr>     <chr>               <dbl> <chr>         <dbl>          <dbl>
    ##  1 0001-0782 ARG                  2020 core              1              0
    ##  2 0001-0782 ARG                  2020 all               1              0
    ##  3 0001-0782 GBR                  2020 all               1              0
    ##  4 0001-0782 CAN                  2021 all               1              0
    ##  5 0001-0782 CHN                  2021 core              1              0
    ##  6 0001-0782 CHN                  2021 all               2              0
    ##  7 0001-0782 DEU                  2021 core              4              0
    ##  8 0001-0782 DEU                  2021 all               6              0
    ##  9 0001-0782 FRA                  2021 core              1              0
    ## 10 0001-0782 FRA                  2021 all               3              0
    ## # ℹ 538,574 more rows
    ## # ℹ 6 more variables: ta_first_author_articles <dbl>,
    ## #   ta_oa_first_author_articles <dbl>, ta_corresponding_author_articles <dbl>,
    ## #   ta_oa_corresponding_author_articles <dbl>,
    ## #   ta_first_corresponding_author_articles <dbl>,
    ## #   ta_oa_first_corresponding_author_articles <dbl>

#### `wos_jn_country_ta_by_year`

Scopus

``` r
readr::read_csv(here("data", "scp_jn_country_ta_by_year.csv"))
```

    ## # A tibble: 503,983 × 12
    ##    issn_l    countrycode earliest_year pubtype ta_articles ta_oa_articles
    ##    <chr>     <chr>               <dbl> <chr>         <dbl>          <dbl>
    ##  1 0001-0782 CHN                  2021 core              2              0
    ##  2 0001-0782 CHN                  2021 all               2              0
    ##  3 0001-0782 DEU                  2021 core              3              0
    ##  4 0001-0782 DEU                  2021 all               3              0
    ##  5 0001-0782 GBR                  2021 core              2              0
    ##  6 0001-0782 GBR                  2021 all               2              0
    ##  7 0001-0782 IRL                  2021 core              1              0
    ##  8 0001-0782 IRL                  2021 all               1              0
    ##  9 0001-0782 NLD                  2021 all               1              0
    ## 10 0001-0782 AUT                  2022 all               3              0
    ## # ℹ 503,973 more rows
    ## # ℹ 6 more variables: ta_first_author_articles <dbl>,
    ## #   ta_oa_first_author_articles <dbl>, ta_corresponding_author_articles <dbl>,
    ## #   ta_oa_corresponding_author_articles <dbl>,
    ## #   ta_first_corresponding_author_articles <dbl>,
    ## #   ta_oa_first_corresponding_author_articles <dbl>
…
