…
jn_upset_articles <- jn_upset_ |> 
  left_join(doi_overlap, by = "issn_l") 

# Backup
jn_upset_articles
#> # A tibble: 12,921 × 11
#>    issn_l     n_cr Crossref n_wos WoS   n_scp Scopus     n doi_in_wos_and_scopus
#>    <chr>     <int> <lgl>    <int> <lgl> <int> <lgl>  <int>                 <dbl>
#>  1 0001-0782  1467 TRUE      1625 TRUE   1464 TRUE    1467                  1282
#>  2 0001-1541  1844 TRUE      1953 TRUE   1939 TRUE    1844                  1807
#>  3 0001-2092  1359 TRUE      1463 TRUE   1040 TRUE    1359                   868
#>  4 0001-2785   875 TRUE        NA FALSE    NA FALSE    875                     0
#>  5 0001-2998   326 TRUE       336 TRUE    343 TRUE     326                   314
#>  6 0001-3072   144 TRUE       142 TRUE    141 TRUE     144                   141
#>  7 0001-3455   120 TRUE        NA FALSE    NA FALSE    120                     0
#>  8 0001-4338   793 TRUE       757 TRUE    765 TRUE     793                   723
#>  9 0001-4346  1108 TRUE      1023 TRUE    993 TRUE    1108                   988
#> 10 0001-4370   526 TRUE       526 TRUE    525 TRUE     526                   525
#> # ℹ 12,911 more rows
#> # ℹ 2 more variables: doi_in_scopus <dbl>, doi_in_wos <dbl>
…
